CPU.sim/sim_1/behav/xsim/simulate.log
Vivado Simulator 2017.4
Time resolution is 1 ps
@@@@@@@@@@          1@@@@@@@@@@
                  10,x          2          x
@@@@@@@@@@          2@@@@@@@@@@
                  20,x          3          x
@@@@@@@@@@          3@@@@@@@@@@
                  30,x          3          x
@@@@@@@@@@          4@@@@@@@@@@
                  40,x 4294967107          x
@@@@@@@@@@          5@@@@@@@@@@
                  50,x          0          x
@@@@@@@@@@          6@@@@@@@@@@
                  60,x 4294967107          x
@@@@@@@@@@          7@@@@@@@@@@
                  70,x          0          x
@@@@@@@@@@          8@@@@@@@@@@
                  80,x      65280          x
@@@@@@@@@@          9@@@@@@@@@@
                  90,x   16777215          x
@@@@@@@@@@         10@@@@@@@@@@
                 100,x 3989547399          x
@@@@@@@@@@         11@@@@@@@@@@
                 110,x  305419896          x
@@@@@@@@@@         12@@@@@@@@@@
                 120,x  305419896          x
@@@@@@@@@@         13@@@@@@@@@@
                 130,x  305419896          x
@@@@@@@@@@         14@@@@@@@@@@
                 140,x  305419896 1221679540
@@@@@@@@@@         15@@@@@@@@@@
                 150,x  305419896 1221679528
@@@@@@@@@@         16@@@@@@@@@@
                 160,x  305419896 1221679540
@@@@@@@@@@         17@@@@@@@@@@
                 170,1  305419896 4294967262
@@@@@@@@@@         18@@@@@@@@@@
                 180,0         16 4294967198
@@@@@@@@@@         19@@@@@@@@@@
                 190,0 4294967294 4294967198
@@@@@@@@@@         20@@@@@@@@@@
                 200,1 4294967294 4294967198
@@@@@@@@@@         21@@@@@@@@@@
                 210,1        240 4294966480
@@@@@@@@@@         22@@@@@@@@@@
                 220,0 4294967280 4294966480
@@@@@@@@@@         23@@@@@@@@@@
                 230,1        240 4294966480
@@@@@@@@@@         24@@@@@@@@@@
                 240,0 4294967280 4294966480
@@@@@@@@@@         25@@@@@@@@@@
                 250,1          2 4294966480
@@@@@@@@@@         26@@@@@@@@@@
                 260,1          2 4294966528
@@@@@@@@@@         27@@@@@@@@@@
                 270,0 4294967280 4294966528
@@@@@@@@@@         28@@@@@@@@@@
                 280,0 4294967280 4294966528
@@@@@@@@@@         29@@@@@@@@@@
                 290,1          0 4294967210
@@@@@@@@@@         30@@@@@@@@@@
                 300,0          0 4294967210
@@@@@@@@@@         31@@@@@@@@@@
                 310,1          0 4294967210
@@@@@@@@@@         32@@@@@@@@@@
                 320,0      65280 4294966492
@@@@@@@@@@         33@@@@@@@@@@
                 330,0   16777215 4294966492
@@@@@@@@@@         34@@@@@@@@@@
                 340,0   16711935 4294966492
@@@@@@@@@@         35@@@@@@@@@@
                 350,0 4278190080 4294966492
@@@@@@@@@@         36@@@@@@@@@@
                 360,0          0 1010580504
@@@@@@@@@@         37@@@@@@@@@@
                 370,0  268435454 1010580504
@@@@@@@@@@         38@@@@@@@@@@
                 380,1 4294967280 1010580504
@@@@@@@@@@         39@@@@@@@@@@
                 390,0          0 1010580504
@@@@@@@@@@         40@@@@@@@@@@
                 400,1 4294967281 1010580504
@@@@@@@@@@         41@@@@@@@@@@
                 410,1          0 1010580504
@@@@@@@@@@         42@@@@@@@@@@
                 420,1 4294967281 1010580504
@@@@@@@@@@         43@@@@@@@@@@
                 430,1          0 1010580504
$finish called at time : 440 ns : File "C:/Users/User/Desktop/Computer organization/single-cycle-CPU-testbench-for-reference/sim_executs32.v" Line 725
